{"properties": [
  {
    "name": "order.routing.key",
    "type": "java.lang.String",
    "description": "The name of a kafka topic uses in the application"
  },
  {
    "name": "order.bill.routing.key",
    "type": "java.lang.String",
    "description": "The name of a kafka topic uses in the application"
  },
  {
    "name": "direct.exchange",
    "type": "java.lang.String",
    "description": "The RabbitMQ direct Exchange"
  }
]}